<?xml version="1.0" encoding="UTF-8"?>
<?xml-stylesheet type="text/xsl" href="static/style.xsl"?>
<!--
  ~ Copyright 2019 Johns Hopkins University
  ~
  ~ Licensed under the Apache License, Version 2.0 (the "License");
  ~ you may not use this file except in compliance with the License.
  ~ You may obtain a copy of the License at
  ~
  ~     http://www.apache.org/licenses/LICENSE-2.0
  ~
  ~ Unless required by applicable law or agreed to in writing, software
  ~ distributed under the License is distributed on an "AS IS" BASIS,
  ~ WITHOUT WARRANTIES OR CONDITIONS OF ANY KIND, either express or implied.
  ~ See the License for the specific language governing permissions and
  ~ limitations under the License.
  -->
<OAI-PMH xmlns="http://www.openarchives.org/OAI/2.0/" xmlns:xsi="http://www.w3.org/2001/XMLSchema-instance" xsi:schemaLocation="http://www.openarchives.org/OAI/2.0/ http://www.openarchives.org/OAI/2.0/OAI-PMH.xsd">
    <responseDate>2019-07-25T13:57:01Z</responseDate>
    <request verb="ListIdentifiers" metadataPrefix="dim" from="2019-07-23T00:00:00Z">https://dash.harvard.edu/oai/request</request>
    <ListIdentifiers>
        <header>
            <identifier>oai:dash.harvard.edu:1/40998304</identifier>
            <datestamp>2019-07-24T19:55:51Z</datestamp>
            <setSpec>com_1_1</setSpec>
            <setSpec>col_1_2</setSpec>
        </header>
        <resumptionToken completeListSize="48231" cursor="0">dim/2018-07-23T00:00:00Z///100</resumptionToken>
    </ListIdentifiers>
</OAI-PMH>